A Python-R Dictionary for Data Science - 2 Structured Data
…
2.1 Delimited files

2.1.1 TSV

As an example, let’s consider the Animal Crossing dataset from week 19 of the 2020 TidyTuesday challenge.

R
Python

url <- "https://raw.githubusercontent.com/rfordatascience/tidytuesday/master/data/2020/2020-05-05/critic.tsv"

df <- read_tsv(url, show_col_types = FALSE)
df

# A tibble: 107 × 4
   grade publication      text                                        date      
   <dbl> <chr>            <chr>                                       <date>    
 1   100 Pocket Gamer UK  Animal Crossing; New Horizons, much like i… 2020-03-16
 2   100 Forbes           Know that if you’re overwhelmed with the w… 2020-03-16
 3   100 Telegraph        With a game this broad and lengthy, there’… 2020-03-16
 4   100 VG247            Animal Crossing: New Horizons is everythin… 2020-03-16
 5   100 Nintendo Insider Above all else, Animal Crossing: New Horiz… 2020-03-16
 6   100 Trusted Reviews  Animal Crossing: New Horizons is the best … 2020-03-16
 7   100 VGC              Nintendo's comforting life sim is a tranqu… 2020-03-16
 8   100 God is a Geek    A beautiful, welcoming game that is everyt… 2020-03-16
 9   100 Nintendo Life    Animal Crossing: New Horizons takes Animal… 2020-03-16
10   100 Daily Star       Similar to how Breath of the Wild and Odys… 2020-03-16
# … with 97 more rows
…
[107 rows x 4 columns]

2.1.2 CSV

As an example, let’s consider the Indoor Pollution dataset from week 15 of the 2022 TidyTuesday challenge.

R
Python

url <- "https://raw.githubusercontent.com/rfordatascience/tidytuesday/master/data/2022/2022-04-12/indoor_pollution.csv"

read_csv(url, show_col_types = FALSE)

# A tibble: 8,010 × 4
   Entity      Code   Year `Deaths - Cause: All causes - Risk: Household air p…`
   <chr>       <chr> <dbl>                                                 <dbl>
 1 Afghanistan AFG    1990                                                  19.6
 2 Afghanistan AFG    1991                                                  19.3
 3 Afghanistan AFG    1992                                                  19.5
 4 Afghanistan AFG    1993                                                  19.7
 5 Afghanistan AFG    1994                                                  19.4
 6 Afghanistan AFG    1995                                                  19.6
 7 Afghanistan AFG    1996                                                  19.8
 8 Afghanistan AFG    1997                                                  19.7
 9 Afghanistan AFG    1998                                                  19.0
10 Afghanistan AFG    1999                                                  19.9
# … with 8,000 more rows
…
[8010 rows x 4 columns]

2.1.3 General delimiter

Again, we can consider the Animal Crossing dataset from TidyTuesday and use the read_table function to import the data by specifying a separator/delimiter.

R
Python

url <- "https://raw.githubusercontent.com/rfordatascience/tidytuesday/master/data/2020/2020-05-05/critic.tsv"

read_delim(url, delim ="\t", show_col_types = FALSE)

# A tibble: 107 × 4
   grade publication      text                                        date      
   <dbl> <chr>            <chr>                                       <date>    
 1   100 Pocket Gamer UK  Animal Crossing; New Horizons, much like i… 2020-03-16
 2   100 Forbes           Know that if you’re overwhelmed with the w… 2020-03-16
 3   100 Telegraph        With a game this broad and lengthy, there’… 2020-03-16
 4   100 VG247            Animal Crossing: New Horizons is everythin… 2020-03-16
 5   100 Nintendo Insider Above all else, Animal Crossing: New Horiz… 2020-03-16
 6   100 Trusted Reviews  Animal Crossing: New Horizons is the best … 2020-03-16
 7   100 VGC              Nintendo's comforting life sim is a tranqu… 2020-03-16
 8   100 God is a Geek    A beautiful, welcoming game that is everyt… 2020-03-16
 9   100 Nintendo Life    Animal Crossing: New Horizons takes Animal… 2020-03-16
10   100 Daily Star       Similar to how Breath of the Wild and Odys… 2020-03-16
# … with 97 more rows
…
