A Python-R Dictionary for Data Science - 5 Subset Data
…
[5 rows x 18 columns]

5.1.4 By column values

Filter rows by column values:

R
Python

df[(df$bmi < 20) & (df$smoking == "Yes"), ]

# A tibble: 6,061 × 18
   heart_disease   bmi smoking alcohol_drinking stroke physical_health
   <chr>         <dbl> <chr>   <chr>            <chr>            <dbl>
 1 No             16.6 Yes     No               No                   3
 2 No             19.0 Yes     No               No                   0
 3 No             19.5 Yes     No               No                   0
 4 No             19.3 Yes     No               No                   0
 5 No             18.8 Yes     No               Yes                  0
 6 No             18.8 Yes     Yes              Yes                 30
 7 No             17.6 Yes     No               No                   2
 8 No             19.1 Yes     No               No                   0
 9 No             14.7 Yes     No               No                   0
10 No             19.0 Yes     No               No                  10
# … with 6,051 more rows, and 12 more variables: mental_health <dbl>,
#   diff_walking <chr>, sex <chr>, age_category <chr>, race <chr>,
#   diabetic <chr>, physical_activity <chr>, gen_health <chr>,
#   sleep_time <dbl>, asthma <chr>, kidney_disease <chr>, skin_cancer <chr>
…
df.query('bmi < 20 & smoking == "Yes"')

5.2 Select two or more columns

5.2.1 By position

Select three columns by their position:

R
Python

df[1:3]

# A tibble: 319,795 × 3
   heart_disease   bmi smoking
   <chr>         <dbl> <chr>  
 1 No             16.6 Yes    
 2 No             20.3 No     
 3 No             26.6 Yes    
 4 No             24.2 No     
 5 No             23.7 No     
 6 Yes            28.9 Yes    
 7 No             21.6 No     
 8 No             31.6 Yes    
 9 No             26.4 No     
10 No             40.7 No     
# … with 319,785 more rows
…
[319795 rows x 3 columns]

5.2.2 By name

Select three columns by their name:

R
Python

df[c("heart_disease", "bmi", "smoking")]

# A tibble: 319,795 × 3
   heart_disease   bmi smoking
   <chr>         <dbl> <chr>  
 1 No             16.6 Yes    
 2 No             20.3 No     
 3 No             26.6 Yes    
 4 No             24.2 No     
 5 No             23.7 No     
 6 Yes            28.9 Yes    
 7 No             21.6 No     
 8 No             31.6 Yes    
 9 No             26.4 No     
10 No             40.7 No     
# … with 319,785 more rows
…
Synonyms

df.loc[:, "heart_disease":"smoking"]

5.2.3 By pattern

Select columns by a regular expression or pattern in their name:

R
Python

df |> select(ends_with("health"))

# A tibble: 319,795 × 3
   physical_health mental_health gen_health
             <dbl>         <dbl> <chr>     
 1               3            30 Very good 
 2               0             0 Very good 
 3              20            30 Fair      
 4               0             0 Good      
 5              28             0 Very good 
 6               6             0 Fair      
 7              15             0 Fair      
 8               5             0 Good      
 9               0             0 Fair      
10               0             0 Good      
# … with 319,785 more rows
…
[319795 rows x 3 columns]

5.2.4 By type

Select columns based on their data type:

R
Python

df |> select(where(is.double))

# A tibble: 319,795 × 4
     bmi physical_health mental_health sleep_time
   <dbl>           <dbl>         <dbl>      <dbl>
 1  16.6               3            30          5
 2  20.3               0             0          7
 3  26.6              20            30          8
 4  24.2               0             0          6
 5  23.7              28             0          8
 6  28.9               6             0         12
 7  21.6              15             0          4
 8  31.6               5             0          9
 9  26.4               0             0          5
10  40.7               0             0         10
# … with 319,785 more rows
…
[319795 rows x 4 columns]

5.3 Remove columns

Remove one column:

R
Python

df |> select(-bmi)

# A tibble: 319,795 × 17
   heart_disease smoking alcohol_drinking stroke physical_health mental_health
   <chr>         <chr>   <chr>            <chr>            <dbl>         <dbl>
 1 No            Yes     No               No                   3            30
 2 No            No      No               Yes                  0             0
 3 No            Yes     No               No                  20            30
 4 No            No      No               No                   0             0
 5 No            No      No               No                  28             0
 6 Yes           Yes     No               No                   6             0
 7 No            No      No               No                  15             0
 8 No            Yes     No               No                   5             0
 9 No            No      No               No                   0             0
10 No            No      No               No                   0             0
# … with 319,785 more rows, and 11 more variables: diff_walking <chr>,
#   sex <chr>, age_category <chr>, race <chr>, diabetic <chr>,
#   physical_activity <chr>, gen_health <chr>, sleep_time <dbl>, asthma <chr>,
#   kidney_disease <chr>, skin_cancer <chr>
…
[319795 rows x 17 columns]

Remove more than one column:

R
Python

df |> select(-c(bmi, heart_disease))

# A tibble: 319,795 × 16
   smoking alcohol_drinking stroke physical_health mental_health diff_walking
   <chr>   <chr>            <chr>            <dbl>         <dbl> <chr>       
 1 Yes     No               No                   3            30 No          
 2 No      No               Yes                  0             0 No          
 3 Yes     No               No                  20            30 No          
 4 No      No               No                   0             0 No          
 5 No      No               No                  28             0 Yes         
 6 Yes     No               No                   6             0 Yes         
 7 No      No               No                  15             0 No          
 8 Yes     No               No                   5             0 Yes         
 9 No      No               No                   0             0 No          
10 No      No               No                   0             0 Yes         
# … with 319,785 more rows, and 10 more variables: sex <chr>,
#   age_category <chr>, race <chr>, diabetic <chr>, physical_activity <chr>,
#   gen_health <chr>, sleep_time <dbl>, asthma <chr>, kidney_disease <chr>,
#   skin_cancer <chr>
…
[319795 rows x 16 columns]

5.4 Sorting

5.4.1 Ascending

Sort a dataset by column values in ascending order:

R
Python

df |> arrange(sex)

# A tibble: 319,795 × 18
   heart_disease   bmi smoking alcohol_drinking stroke physical_health
   <chr>         <dbl> <chr>   <chr>            <chr>            <dbl>
 1 No             16.6 Yes     No               No                   3
 2 No             20.3 No      No               Yes                  0
 3 No             24.2 No      No               No                   0
 4 No             23.7 No      No               No                  28
 5 Yes            28.9 Yes     No               No                   6
 6 No             21.6 No      No               No                  15
 7 No             31.6 Yes     No               No                   5
 8 No             26.4 No      No               No                   0
 9 No             28.7 Yes     No               No                   0
10 No             28.2 No      No               No                   7
# … with 319,785 more rows, and 12 more variables: mental_health <dbl>,
#   diff_walking <chr>, sex <chr>, age_category <chr>, race <chr>,
#   diabetic <chr>, physical_activity <chr>, gen_health <chr>,
#   sleep_time <dbl>, asthma <chr>, kidney_disease <chr>, skin_cancer <chr>
…
[319795 rows x 18 columns]

5.4.2 Descending

Sort a dataset by column values in descending order:

R
Python

df |> arrange(-bmi)

# A tibble: 319,795 × 18
   heart_disease   bmi smoking alcohol_drinking stroke physical_health
   <chr>         <dbl> <chr>   <chr>            <chr>            <dbl>
 1 No             94.8 No      No               No                   0
 2 No             94.7 No      No               No                   4
 3 No             94.0 Yes     No               No                  20
 4 No             93.9 Yes     Yes              No                  30
 5 No             92.5 Yes     No               No                   7
 6 No             91.8 No      No               No                   0
 7 No             91.6 Yes     No               No                   0
 8 No             91.6 No      No               No                   0
 9 No             88.6 No      No               No                  30
10 No             88.2 No      No               No                   0
# … with 319,785 more rows, and 12 more variables: mental_health <dbl>,
#   diff_walking <chr>, sex <chr>, age_category <chr>, race <chr>,
#   diabetic <chr>, physical_activity <chr>, gen_health <chr>,
#   sleep_time <dbl>, asthma <chr>, kidney_disease <chr>, skin_cancer <chr>
…
