A Python-R Dictionary for Data Science - 7 Pivoting and Joining
…
7.1.1 Long format

R
Python

df4 <- df3 |> 
    pivot_longer(-patient_id, names_to = "variable", values_to = "value",
                 values_transform = as.character)
df4

# A tibble: 40 × 3
   patient_id variable      value
   <chr>      <chr>         <chr>
 1 P1         heart_disease No   
 2 P1         stroke        No   
 3 P1         smoking       Yes  
 4 P1         bmi           16.6 
 5 P2         heart_disease No   
 6 P2         stroke        Yes  
 7 P2         smoking       No   
 8 P2         bmi           20.34
 9 P3         heart_disease No   
10 P3         stroke        No   
# … with 30 more rows
…
  gen_health  random_biomarker
0       Poor         -1.085631
1       Fair          0.997345
2       Good          0.282978
3  Very good         -1.506295
4  Excellent         -0.578600

7.2.1 Left-join

R
Python

df |> left_join(df2, by = "gen_health")

# A tibble: 319,795 × 19
   heart_disease   bmi smoking alcohol_drinking stroke physical_health
   <chr>         <dbl> <chr>   <chr>            <chr>            <dbl>
 1 No             16.6 Yes     No               No                   3
 2 No             20.3 No      No               Yes                  0
 3 No             26.6 Yes     No               No                  20
 4 No             24.2 No      No               No                   0
 5 No             23.7 No      No               No                  28
 6 Yes            28.9 Yes     No               No                   6
 7 No             21.6 No      No               No                  15
 8 No             31.6 Yes     No               No                   5
 9 No             26.4 No      No               No                   0
10 No             40.7 No      No               No                   0
# … with 319,785 more rows, and 13 more variables: mental_health <dbl>,
#   diff_walking <chr>, sex <chr>, age_category <chr>, race <chr>,
#   diabetic <chr>, physical_activity <chr>, gen_health <chr>,
#   sleep_time <dbl>, asthma <chr>, kidney_disease <chr>, skin_cancer <chr>,
#   random_biomarker <dbl>
…
[319795 rows x 19 columns]

7.2.2 Right-join

R
Python

df |> right_join(df2, by = "gen_health")

# A tibble: 319,795 × 19
   heart_disease   bmi smoking alcohol_drinking stroke physical_health
   <chr>         <dbl> <chr>   <chr>            <chr>            <dbl>
 1 No             16.6 Yes     No               No                   3
 2 No             20.3 No      No               Yes                  0
 3 No             26.6 Yes     No               No                  20
 4 No             24.2 No      No               No                   0
 5 No             23.7 No      No               No                  28
 6 Yes            28.9 Yes     No               No                   6
 7 No             21.6 No      No               No                  15
 8 No             31.6 Yes     No               No                   5
 9 No             26.4 No      No               No                   0
10 No             40.7 No      No               No                   0
# … with 319,785 more rows, and 13 more variables: mental_health <dbl>,
#   diff_walking <chr>, sex <chr>, age_category <chr>, race <chr>,
#   diabetic <chr>, physical_activity <chr>, gen_health <chr>,
#   sleep_time <dbl>, asthma <chr>, kidney_disease <chr>, skin_cancer <chr>,
#   random_biomarker <dbl>
…
